{
    "help": {
        "usage": "[page]",
        "examples": [
            "",
            "2",
            "ban"
        ]
    },
    "serverinfo": {
        "badusage_text": ":speech_balloon: Sorry?",
        "usage": "[emojis/roles]",
        "examples": [
            "",
            "emojis",
            "roles"
        ]
    },
    "prefix": {
        "usage": "prefix [prefix/reset]",
        "examples": [
            "",
            "!",
            "reset"
        ]
    },
    "ban": {
        "badusage_text": ":warning: Who do you want to ban? Use `{0} {1}` to ban a member.",
        "usage": "<@member (mention)> <reason>",
        "examples": [
            "@EvilOne Spammer"
        ]
    },
    "kick": {
        "badusage_text": ":warning: Who do you want to kick? Use `{0} {1}` to kick someone.",
        "usage": "<@member (mention)> <reason>",
        "examples": [
            "@EvilOne Scammer"
        ]
    },
    "warn": {
        "badusage_text": ":warning: I need to know who to warn.",
        "usage": "<@member (mention)> <reason>",
        "examples": [
            "@EvilOne Scammer"
        ]
    },
    "unwarn": {
        "badusage_text": ":warning: I need to know who to unwarn.",
        "usage": "<@member (mention)>",
        "examples": [
            "@GoodOne"
        ]
    },
    "warns": {
        "usage": "<@member (mention)>",
        "examples": [
            "@tuxifan"
        ]
    },
    "balance": {
        "usage": "[user]",
        "examples": [
            "",
            "tuxifan"
        ]
    },
    "random": {
        "usage": "<min> <max>",
        "examples": [
            "0 10",
            "-100 100"
        ]
    },
    "8ball": {
        "badusage_text": ":warning: Without a question I can't answer.",
        "usage": "<question>",
        "examples": [
            "Will the corona pandemic end in 2021?",
            "Can I go to bed early today?"
        ]
    },
    "pay": {
        "usage": "<receiver> <amount>",
        "examples": [
            "@tuxifan 500",
            "trigonrex 1000",
            "363035228198928407 236"
        ]
    },
    "bet": {
        "usage": "<number from 1-99>",
        "examples": [
            "4"
        ]
    },
    "gc_blacklist": {
        "unlisted": true,
        "usage": "<add/remove> <user ID>",
        "examples": [
            "add 609486822715818000",
            "remove 533383451676639252"
        ]
    },
    "welcomedm": {
        "usage": "[formatted message]",
        "examples": [
            "**Welcome {0} to {1}!** ..."
        ]
    },
    "autoroles": {
        "usage": "[roles IDs]",
        "examples": [
            "802881774598356992 802881832017723403"
        ]
    }
}
